…
``` r
input <- read_table(here::here("Inputs", "input_03.txt"), col_names = c("contents"), skip_empty_rows=FALSE)
```

    ## 
    ## ── Column specification ────────────────────────────────────────────────────────
    ## cols(
    ##   contents = col_character()
    ## )

``` r
input
```

    ## # A tibble: 300 × 1
    ##    contents                                        
    ##    <chr>                                           
    ##  1 zBBtHnnHtwwHplmlRlzPLCpp                        
    ##  2 vvhJccJFGFcNsdNNJbhJsJQplQMRLQMlfdfTPCLfQQCT    
    ##  3 GPhjcjhZDjWtnSVH                                
    ##  4 BNhHVhrGNVTbDHdDJdJRPJdSQQSJwPjR                
    ##  5 lvtsfbsqzwSnJcvjSm                              
    ##  6 MftttFLftZMLgtgMbltMqZzbDNrTpVGhNWrDTrpTGNpZGZhD
    ##  7 VSSHcTgTtTdtllZlzmmbljTn                        
    ##  8 RqMqsFfQLLFLQFMMfRLPZLvPpCfWrbpmCbjCnfjlWmnrmmnm
    ##  9 hqRDqPDRsqNHwtHSNBZtJd                          
    ## 10 tNFDpDFrtdjfmjjjFmFFdScpZhZScTJgpHccHhMJgS      
    ## # … with 290 more rows
…
