…
``` r
input <- read_table(here::here("Inputs", "input_01.txt"), col_names = FALSE, skip_empty_rows=FALSE)
```

    ## 
    ## ── Column specification ────────────────────────────────────────────────────────
    ## cols(
    ##   X1 = col_double()
    ## )

``` r
input
```

    ## # A tibble: 2,264 × 1
    ##       X1
    ##    <dbl>
    ##  1  7532
    ##  2 37124
    ##  3    NA
    ##  4 37309
    ##  5    NA
    ##  6  7616
    ##  7  2128
    ##  8  2657
    ##  9  8061
    ## 10  8565
    ## # … with 2,254 more rows
…
