…
    ## 
    ## ── Column specification ────────────────────────────────────────────────────────
    ## cols(
    ##   O = col_character(),
    ##   Y = col_character()
    ## )

``` r
input
```

    ## # A tibble: 2,500 × 2
    ##    O     Y    
    ##    <chr> <chr>
    ##  1 C     X    
    ##  2 B     Y    
    ##  3 C     Z    
    ##  4 C     Z    
    ##  5 B     X    
    ##  6 C     Z    
    ##  7 C     Z    
    ##  8 C     Z    
    ##  9 B     X    
    ## 10 B     Y    
    ## # … with 2,490 more rows
…
GameScores <- input %>%
  mutate(
    ShapeScoreO=score_shape(O),
    ShapeScoreY=score_shape(Y),
    ShapeO=name_shape(O),
    ShapeY=name_shape(Y),
    GameScore=game_score(ShapeScoreY, ShapeScoreO),
    TotScore=ShapeScoreY+GameScore
    
  ) 

GameScores
```

    ## # A tibble: 2,500 × 8
    ##    O     Y     ShapeScoreO ShapeScoreY ShapeO   ShapeY   GameScore TotScore
    ##    <chr> <chr>       <dbl>       <dbl> <chr>    <chr>        <dbl>    <dbl>
    ##  1 C     X               3           1 scissors rock             6        7
    ##  2 B     Y               2           2 paper    paper            3        5
    ##  3 C     Z               3           3 scissors scissors         3        6
    ##  4 C     Z               3           3 scissors scissors         3        6
    ##  5 B     X               2           1 paper    rock             0        1
    ##  6 C     Z               3           3 scissors scissors         3        6
    ##  7 C     Z               3           3 scissors scissors         3        6
    ##  8 C     Z               3           3 scissors scissors         3        6
    ##  9 B     X               2           1 paper    rock             0        1
    ## 10 B     Y               2           2 paper    paper            3        5
    ## # … with 2,490 more rows
…
GameScores2
```

    ## # A tibble: 2,500 × 6
    ##    O     Y     ShapeScoreO ShapeScoreY GameScore TotScore
    ##    <chr> <chr>       <dbl>       <dbl>     <dbl>    <dbl>
    ##  1 C     X               3           2         0        2
    ##  2 B     Y               2           2         3        5
    ##  3 C     Z               3           1         6        7
    ##  4 C     Z               3           1         6        7
    ##  5 B     X               2           1         0        1
    ##  6 C     Z               3           1         6        7
    ##  7 C     Z               3           1         6        7
    ##  8 C     Z               3           1         6        7
    ##  9 B     X               2           1         0        1
    ## 10 B     Y               2           2         3        5
    ## # … with 2,490 more rows
…
